[{"id":1,"first_name":"Caria","last_name":"Scamerden","email":"cscamerden0@php.net","gender":"Male","title":"Services","company":"Zoomzone","avatar":"https://robohash.org/aliquamautodio.png?size=50x50&set=set1"},
    {"id":2,"first_name":"Cristian","last_name":"Davidi","email":"cdavidi1@spiegel.de","gender":"Female","title":"Engineering","company":"Blogpad","avatar":"https://robohash.org/nobisetdolor.png?size=50x50&set=set1"},
    {"id":3,"first_name":"Koral","last_name":"Brereton","email":"kbrereton2@fc2.com","gender":"Female","title":"Engineering","company":"Nlounge","avatar":"https://robohash.org/ipsumdoloremquidem.png?size=50x50&set=set1"},
    {"id":4,"first_name":"Doralia","last_name":"Vernall","email":"dvernall3@blogs.com","gender":"Male","title":"Training","company":"Jatri","avatar":"https://robohash.org/voluptascorporisdolor.png?size=50x50&set=set1"},
    {"id":5,"first_name":"Normand","last_name":"Spincke","email":"nspincke4@youtu.be","gender":"Male","title":"Accounting","company":"Yotz","avatar":"https://robohash.org/voluptassequiquas.png?size=50x50&set=set1"},
    {"id":6,"first_name":"Brandea","last_name":"Davis","email":"bdavis5@123-reg.co.uk","gender":"Female","title":"Research and Development","company":"Photobug","avatar":"https://robohash.org/velitvoluptasquibusdam.png?size=50x50&set=set1"},
    {"id":7,"first_name":"Janet","last_name":"Rudeyeard","email":"jrudeyeard6@thetimes.co.uk","gender":"Female","title":"Engineering","company":"Bubbletube","avatar":"https://robohash.org/doloremqueetnon.png?size=50x50&set=set1"},
    {"id":8,"first_name":"Loise","last_name":"Caton","email":"lcaton7@ca.gov","gender":"Male","title":"Services","company":"Linkbridge","avatar":"https://robohash.org/perferendiseumnihil.png?size=50x50&set=set1"},
    {"id":9,"first_name":"Anna-diana","last_name":"Robillart","email":"arobillart8@google.nl","gender":"Male","title":null,"company":"Photofeed","avatar":"https://robohash.org/utteneturpraesentium.png?size=50x50&set=set1"},
    {"id":10,"first_name":"Domeniga","last_name":"Levy","email":"dlevy9@gizmodo.com","gender":"Male","title":null,"company":"Browsebug","avatar":"https://robohash.org/totamquaeratpariatur.png?size=50x50&set=set1"},
    {"id":11,"first_name":"Meg","last_name":"Ludgrove","email":"mludgrovea@accuweather.com","gender":"Male","title":"Accounting","company":"Twimbo","avatar":"https://robohash.org/itaqueidvoluptatibus.png?size=50x50&set=set1"},
    {"id":12,"first_name":"Gabriell","last_name":"Theseira","email":"gtheseirab@rambler.ru","gender":"Female","title":null,"company":"Oloo","avatar":"https://robohash.org/omnisquiet.png?size=50x50&set=set1"},
    {"id":13,"first_name":"Monroe","last_name":"Pirkis","email":"mpirkisc@yelp.com","gender":"Female","title":"Business Development","company":"Oyoloo","avatar":"https://robohash.org/voluptassedid.png?size=50x50&set=set1"},
    {"id":14,"first_name":"Bill","last_name":"Tyrwhitt","email":"btyrwhittd@harvard.edu","gender":"Male","title":"Business Development","company":"Jabbersphere","avatar":"https://robohash.org/accusantiumeumut.png?size=50x50&set=set1"},
    {"id":15,"first_name":"Cynthy","last_name":"Eadington","email":"ceadingtone@barnesandnoble.com","gender":"Female","title":null,"company":"Midel","avatar":"https://robohash.org/nesciuntoditvelit.png?size=50x50&set=set1"},
    {"id":16,"first_name":"Darius","last_name":"Gallo","email":"dgallof@github.com","gender":"Male","title":"Marketing","company":"Twitterwire","avatar":"https://robohash.org/voluptatumipsaaut.png?size=50x50&set=set1"},
    {"id":17,"first_name":"Michele","last_name":"Tabourel","email":"mtabourelg@jugem.jp","gender":"Female","title":null,"company":"Realblab","avatar":"https://robohash.org/modicommodiest.png?size=50x50&set=set1"},
    {"id":18,"first_name":"Seymour","last_name":"Bento","email":"sbentoh@apple.com","gender":"Male","title":"Support","company":"Eadel","avatar":"https://robohash.org/distinctiosednihil.png?size=50x50&set=set1"},
    {"id":19,"first_name":"Markos","last_name":"Durnford","email":"mdurnfordi@dion.ne.jp","gender":"Male","title":"Engineering","company":"Dabtype","avatar":"https://robohash.org/assumendaautquia.png?size=50x50&set=set1"},
    {"id":20,"first_name":"Free","last_name":"Mazzia","email":"fmazziaj@free.fr","gender":"Female","title":"Engineering","company":"Eamia","avatar":"https://robohash.org/nemopossimusexplicabo.png?size=50x50&set=set1"}
]
